<?xml version="1.0" encoding="UTF-8"?>
<svg width="20px" height="16px" viewBox="0 0 20 16" version="1.1" xmlns="http://www.w3.org/2000/svg" xmlns:xlink="http://www.w3.org/1999/xlink">
    <!-- Generator: Sketch 56.3 (81716) - https://sketch.com -->
    <title>Group 4 Copy 10</title>
    <desc>Created with Sketch.</desc>
    <g id="Page-1" stroke="none" stroke-width="1" fill="none" fill-rule="evenodd">
        <g id="Group-4-Copy-10" fill-rule="nonzero">
            <g id="noun_Profit_162933">
                <path d="M19.0735342,2.50827397 C19.0246575,3.55134247 18.9733699,4.59441096 18.9273425,5.63726027 C18.9187945,5.83013699 18.8767123,5.99758904 18.6836164,6.1030137 C18.6235616,6.13567123 18.5711781,6.14947945 18.5240548,6.14947945 C18.3984658,6.14947945 18.3107945,6.05260274 18.220274,5.96208219 C17.9684384,5.7100274 17.7174795,5.45731507 17.4645479,5.20657534 C17.4314521,5.17369863 17.3966027,5.14213699 17.3604384,5.10991781 L17.254137,5.00361644 L16.8953425,5.36241096 L13.9364384,8.32131507 L13.673863,8.58389041 L13.0257534,9.23178082 L9.97917808,12.2783562 L9.80405479,12.4534795 C9.66619178,12.5913425 9.48558904,12.6601644 9.3049863,12.6601644 C9.12438356,12.6601644 8.94378082,12.5913425 8.80591781,12.4534795 L8.63079452,12.2783562 L7.98290411,11.6304658 L4.93632877,8.58389041 L4.78750685,8.43506849 L1.59276712,11.6304658 C1.45490411,11.7683288 1.27430137,11.8371507 1.09369863,11.8371507 C0.91309589,11.8371507 0.732493151,11.7683288 0.594630137,11.6304658 L0.419506849,11.4553425 C0.144,11.1798356 0.144,10.7329315 0.419506849,10.4574247 L4.1139726,6.7629589 L4.28909589,6.58783562 C4.4269589,6.4499726 4.60756164,6.38115068 4.78816438,6.38115068 C4.96876712,6.38115068 5.14936986,6.4499726 5.28723288,6.58783562 L5.46235616,6.7629589 L6.11024658,7.41084932 L9.15682192,10.4574247 L9.30564384,10.6062466 L11.8531507,8.05873973 L12.5010411,7.41084932 L12.7636164,7.14827397 L15.7225205,4.18936986 L16.0870137,3.82487671 C15.7523288,3.50268493 15.4279452,3.1699726 15.0998356,2.8409863 C14.9863014,2.72723288 14.8817534,2.61457534 14.973589,2.416 C15.0652055,2.21786301 15.2280548,2.20843836 15.3950685,2.20054795 C16.4642192,2.14947945 17.5333699,2.09906849 18.6023014,2.04975342 C18.6191781,2.04887671 18.6356164,2.04865753 18.6516164,2.04865753 C18.957589,2.04865753 19.0882192,2.19309589 19.0735342,2.50827397 Z" id="Path" fill="#2F5BEA"></path>
                <path d="M2.22312329,12.2606027 C2.07846575,12.4052603 1.91057534,12.5185753 1.72821918,12.5974795 L1.72821918,13.584 L1.72821918,15.2181918 C1.72821918,15.6078904 2.04427397,15.9239452 2.4339726,15.9239452 L4.01863014,15.9239452 C4.40832877,15.9239452 4.72438356,15.6078904 4.72438356,15.2181918 L4.72438356,13.584 L4.72438356,11.504 L4.72438356,9.86980822 C4.72438356,9.8349589 4.72109589,9.80120548 4.71627397,9.76767123 L2.22312329,12.2606027 Z" id="Path" fill="#2F5BEA"></path>
                <path d="M8.176,13.0836164 L8.00087671,12.9084932 L7.3529863,12.2606027 L5.96076712,10.8683836 C5.89917808,10.9731507 5.8630137,11.0947945 5.8630137,11.2252055 L5.8630137,11.5037808 L5.8630137,14.9393973 L5.8630137,15.2179726 C5.8630137,15.6076712 6.17906849,15.923726 6.56876712,15.923726 L8.15342466,15.923726 C8.54312329,15.923726 8.85917808,15.6076712 8.85917808,15.2179726 L8.85917808,14.9393973 C8.85917808,14.9393973 8.85917808,14.9393973 8.85917808,14.9393973 L8.85917808,13.4882192 C8.60361644,13.4143562 8.36931507,13.2769315 8.176,13.0836164 Z" id="Path" fill="#2F5BEA"></path>
                <path d="M10.6095342,12.9084932 L10.434411,13.0836164 C10.3053151,13.2127123 10.1578082,13.3168219 9.99824658,13.3937534 L9.99824658,14.9396164 C9.99824658,14.9396164 9.99824658,14.9396164 9.99824658,14.9396164 L9.99824658,15.2181918 C9.99824658,15.6078904 10.3143014,15.9239452 10.704,15.9239452 L12.2886575,15.9239452 C12.6783562,15.9239452 12.994411,15.6078904 12.994411,15.2181918 L12.994411,14.9396164 L12.994411,11.504 L12.994411,11.2254247 C12.994411,11.0316712 12.9161644,10.8561096 12.7896986,10.7285479 L10.6095342,12.9084932 Z" id="Path" fill="#2F5BEA"></path>
                <path d="M14.5665753,8.95167123 L14.304,9.21424658 L14.1334795,9.38476712 L14.1334795,9.86980822 L14.1334795,10.2040548 L14.1334795,11.504 L14.1334795,11.8382466 L14.1334795,13.5837808 L14.1334795,15.2179726 C14.1334795,15.6076712 14.4495342,15.923726 14.8392329,15.923726 L16.4238904,15.923726 C16.813589,15.923726 17.1296438,15.6076712 17.1296438,15.2179726 L17.1296438,13.5837808 L17.1296438,11.8382466 L17.1296438,11.504 L17.1296438,10.2040548 L17.1296438,9.86980822 L17.1296438,8.12427397 L17.1296438,6.49008219 C17.1296438,6.45808219 17.1267945,6.42673973 17.1226301,6.39583562 L14.5665753,8.95167123 Z" id="Path" fill="#2F5BEA"></path>
                <path d="M9.14871233,0.0138082192 C8.92120548,0.0203835616 8.8819726,0.0596164384 8.87605479,0.28909589 C8.87342466,0.391890411 8.87539726,0.49490411 8.87473973,0.597917808 C8.87320548,0.902136986 8.87167123,0.897972603 8.58060274,1.00383562 C7.87506849,1.26049315 7.44,1.74027397 7.39309589,2.5100274 C7.35167123,3.19079452 7.70630137,3.65041096 8.26564384,3.98531507 C8.61019178,4.19178082 8.99134247,4.31452055 9.35605479,4.47473973 C9.49852055,4.53742466 9.63419178,4.6099726 9.75408219,4.70838356 C10.1056438,4.99769863 10.0403288,5.48076712 9.62432877,5.66246575 C9.4009863,5.76 9.16580822,5.78432877 8.92471233,5.75430137 C8.55145205,5.70761644 8.19419178,5.60964384 7.85863014,5.43473973 C7.66180822,5.33216438 7.60416438,5.35912329 7.53709589,5.57282192 C7.47945205,5.75693151 7.42816438,5.9430137 7.37731507,6.12909589 C7.30893151,6.37917808 7.33347945,6.43879452 7.57194521,6.55452055 C7.87572603,6.70180822 8.20120548,6.77742466 8.5330411,6.8300274 C8.79254795,6.8710137 8.80109589,6.88263014 8.80372603,7.15178082 C8.8050411,7.27408219 8.80569863,7.39616438 8.80723288,7.51846575 C8.8089863,7.67254795 8.88306849,7.7619726 9.04109589,7.76482192 C9.2210411,7.76810959 9.40120548,7.76832877 9.58115068,7.76372603 C9.72821918,7.76 9.80427397,7.68021918 9.80449315,7.5309589 C9.80493151,7.36372603 9.8130411,7.19627397 9.80580822,7.02926027 C9.79835616,6.85917808 9.87156164,6.77326027 10.0352877,6.72832877 C10.4109589,6.62531507 10.732274,6.42345205 10.9795068,6.12317808 C11.6635616,5.29227397 11.4016438,4.07320548 10.4309041,3.53556164 C10.1262466,3.36679452 9.80273973,3.23945205 9.48186301,3.10641096 C9.29665753,3.02969863 9.1180274,2.93917808 8.9619726,2.81424658 C8.65358904,2.56723288 8.71210959,2.16723288 9.07484932,2.00876712 C9.17654795,1.96427397 9.28394521,1.94936986 9.39419178,1.94345205 C9.81391781,1.92065753 10.2123836,1.99715068 10.592,2.1810411 C10.7809315,2.27243836 10.8436164,2.24394521 10.9073973,2.04712329 C10.9746849,1.83912329 11.0314521,1.62783562 11.0926027,1.41786301 C11.133589,1.27693151 11.0833973,1.18334247 10.9492603,1.12438356 C10.706411,1.01742466 10.4558904,0.939835616 10.1935342,0.898849315 C9.85073973,0.845150685 9.8509589,0.843616438 9.84942466,0.499726027 C9.84745205,0.0127123288 9.84745205,0.0127123288 9.36087671,0.0135890411 C9.29008219,0.0135890411 9.21928767,0.0118356164 9.14871233,0.0138082192 Z" id="Path" fill="#B5C7FF"></path>
            </g>
        </g>
    </g>
</svg>