<?xml version="1.0" encoding="UTF-8"?>
<svg width="96px" height="46px" viewBox="0 0 96 46" version="1.1" xmlns="http://www.w3.org/2000/svg" xmlns:xlink="http://www.w3.org/1999/xlink">
    <!-- Generator: Sketch 55.1 (78136) - https://sketchapp.com -->
    <title>noun_Vision_2040011</title>
    <desc>Created with Sketch.</desc>
    <g id="Page-1" stroke="none" stroke-width="1" fill="none" fill-rule="evenodd">
        <g id="About" transform="translate(-852.000000, -1488.000000)" fill="#FF9A9A" fill-rule="nonzero">
            <g id="Group-8" transform="translate(0.000000, 1452.000000)">
                <g id="Group-9" transform="translate(843.000000, 24.000000)">
                    <g id="noun_Vision_2040011" transform="translate(9.000000, 12.000000)">
                        <g id="Group">
                            <path d="M44.8,21 L41.5,21 C40.4,21 39.5,21.9 39.5,23 C39.5,24.1 40.4,25 41.5,25 L44.8,25 C45.9,25 46.8,24.1 46.8,23 C46.8,21.9 45.9,21 44.8,21 Z" id="Path"></path>
                            <path d="M56.3,21 L53,21 C51.9,21 51,21.9 51,23 C51,24.1 51.9,25 53,25 L56.3,25 C57.4,25 58.3,24.1 58.3,23 C58.3,21.9 57.4,21 56.3,21 Z" id="Path"></path>
                            <path d="M67.9,21 L64.6,21 C63.5,21 62.6,21.9 62.6,23 C62.6,24.1 63.5,25 64.6,25 L67.9,25 C69,25 69.9,24.1 69.9,23 C69.8,21.9 68.9,21 67.9,21 Z" id="Path"></path>
                            <path d="M79.4,21 L76.1,21 C75,21 74.1,21.9 74.1,23 C74.1,24.1 75,25 76.1,25 L79.4,25 C80.5,25 81.4,24.1 81.4,23 C81.4,21.9 80.5,21 79.4,21 Z" id="Path"></path>
                            <path d="M35.3,23.1 C35.3,22.8 35.3,22.4 35.3,22.1 C35.1,16.8 33.5,11.7 30.7,7.5 C32.1,5.3 32.8,3.8 32.9,3.7 C33.4,2.7 32.9,1.5 32,1.1 C31,0.6 29.8,1.1 29.4,2 C29.3,2.2 20.2,21 2.6,21 C1.5,21 0.6,21.9 0.6,23 C0.6,24.1 1.5,25 2.6,25 C20.2,25 29.3,43.9 29.4,44 C29.7,44.7 30.4,45.1 31.2,45.1 C31.5,45.1 31.8,45 32,44.9 C33,44.4 33.4,43.3 32.9,42.3 C32.8,42.2 32.1,40.7 30.7,38.5 C33.5,34.3 35.1,29.3 35.3,24.2 C35.3,23.8 35.3,23.5 35.3,23.1 Z M25.3,31.7 C21.5,27.7 17.3,24.7 12.8,23 C17.3,21.2 21.5,18.3 25.3,14.3 C26.4,13.2 27.3,12.1 28.1,11 C28.9,12.4 29.6,14 30.1,15.6 C28,16.2 26.4,19.3 26.4,23.1 C26.4,26.9 28,30 30,30.6 C29.5,32.2 28.8,33.7 28,35.1 C27.3,34 26.4,32.9 25.3,31.7 Z" id="Shape"></path>
                            <circle id="Oval" cx="90.6" cy="23" r="4.9"></circle>
                        </g>
                    </g>
                </g>
            </g>
        </g>
    </g>
</svg>