<?xml version="1.0" encoding="UTF-8"?>
<svg width="193px" height="110px" viewBox="0 0 193 110" version="1.1" xmlns="http://www.w3.org/2000/svg" xmlns:xlink="http://www.w3.org/1999/xlink">
    <!-- Generator: Sketch 55.1 (78136) - https://sketchapp.com -->
    <title>Group 29</title>
    <desc>Created with Sketch.</desc>
    <g id="Page-1" stroke="none" stroke-width="1" fill="none" fill-rule="evenodd">
        <g id="Home-v2-A" transform="translate(-167.000000, -4849.000000)" fill="#000000">
            <g id="Group-29" transform="translate(167.000000, 4849.000000)">
                <polygon id="Fill-1" points="55.5 88 60.5 88 60.5 68 55.5 68"></polygon>
                <g id="Group-28">
                    <path d="M33.1989746,15.5490255 C33.0032075,14.9527834 32.6753151,14.1582611 32.2830892,13.1640573 C29.7318921,6.87023567 25.0231072,4.28628662 20.0514548,4.28628662 C13.3137487,4.28628662 6.77319319,9.5866051 6.77319319,21.0483248 C6.77319319,33.5694076 14.4254011,41.519535 21.3595659,41.519535 C26.854186,41.519535 29.797609,38.3393439 32.0873222,34.9608726 C33.0682326,33.5035478 33.3297165,32.5093439 34.2456018,32.5093439 C34.7692613,32.5093439 36.1423975,33.3045669 36.4045731,33.7683885 C36.7310821,34.4304904 36.2081143,35.2922739 35.3572541,36.6830382 C32.2830892,41.9174968 27.1156699,44.765586 20.1164799,44.765586 C9.25867348,44.765586 0.493429749,34.9608726 0.493429749,22.5715096 C0.493429749,11.0439299 8.86575591,1.5699172 19.3970534,1.5699172 C24.8916735,1.5699172 28.8166986,3.95488535 31.3678957,7.00265605 C32.479548,7.00265605 33.0032075,5.4787707 33.2646914,3.7566051 C33.3954333,3.02794268 33.7883509,2.63068153 34.5077774,2.63068153 L35.8151968,2.63068153 L36.5346233,15.615586 L34.7035444,16.2776879 C33.9841179,16.5432293 33.4604584,16.2776879 33.1989746,15.5490255" id="Fill-2"></path>
                    <path d="M54.5198022,16.1456178 C50.0067842,16.1456178 46.8669025,19.126828 46.8669025,27.5407771 C46.8669025,35.4902038 50.8569527,41.3867643 56.2208308,41.3867643 C60.7995656,41.3867643 63.9394473,38.3396943 63.9394473,30.0581656 C63.9394473,22.1080382 59.8186552,16.1456178 54.5198022,16.1456178 M69.2376086,28.5349809 C69.2376086,38.008293 62.8928201,44.434535 55.5014043,44.434535 C47.9135297,44.434535 41.4379993,38.008293 41.4379993,29.0639618 C41.4379993,19.4582293 47.9135297,13.4292484 55.2399204,13.4292484 C62.8928201,13.4292484 69.2376086,19.4582293 69.2376086,28.5349809" id="Fill-4"></path>
                    <path d="M84.0835975,40.8574331 L83.364171,43.3082611 C81.9910348,43.9052038 81.0094326,44.302465 80.0285222,44.302465 C76.7578986,44.302465 74.991153,41.7843758 74.991153,38.4059045 L74.991153,6.73781529 C74.991153,4.55182803 73.6180168,3.82316561 71.1318448,4.15386624 L71.1318448,1.5699172 L78.2624685,0.311573248 C80.6822319,-0.086388535 80.1592642,2.29928025 80.1592642,5.21392994 L80.1592642,38.1410637 C80.1592642,40.327051 80.8786907,41.6526561 84.0835975,40.8574331" id="Fill-6"></path>
                    <path d="M115.869937,15.9464968 C110.833259,15.9464968 107.955553,20.319172 107.955553,26.2815924 L123.064894,26.2815924 C123.13061,20.319172 120.580105,15.9464968 115.869937,15.9464968 M124.896664,28.9979618 L107.955553,28.9979618 C107.955553,36.4842675 112.534288,41.3873248 117.505248,41.3873248 C122.149008,41.3873248 124.503747,38.6043949 126.074033,36.4842675 L127.840087,38.8033758 C126.204775,40.9893631 123.522836,44.4343949 116.458621,44.4343949 C108.413496,44.4343949 102.198757,37.7433121 102.198757,28.5348408 C102.198757,18.7952866 108.347779,13.4291083 115.869937,13.4291083 C122.411184,13.4291083 128.560205,18.1331847 128.560205,25.5529299 C128.560205,28.0710191 127.317119,28.9979618 124.896664,28.9979618" id="Fill-8"></path>
                    <path d="M152.89038,22.8365605 C152.89038,19.4580892 152.367413,15.9464968 146.218391,15.9464968 C140.985255,15.9464968 139.873603,19.3915287 139.873603,22.8365605 C139.873603,25.6194904 140.200803,30.3235669 146.284108,30.3235669 C152.170954,30.3235669 152.89038,26.0167516 152.89038,22.8365605 M137.715323,49.4698726 C137.715323,53.5111465 140.200803,56.028535 145.891882,56.028535 C153.740549,56.028535 156.488205,54.5046497 156.488205,48.6746497 C156.488205,45.2296178 154.591409,44.3026752 150.470617,43.5740127 L141.90114,42.2484076 C138.761258,43.0436306 137.715323,47.0190446 137.715323,49.4698726 M163.748878,16.0130573 C163.748878,17.8676433 162.571509,18.8618471 161.328423,18.464586 C159.300886,17.8676433 158.188542,18.5963057 158.188542,23.2338217 C158.188542,28.4017197 154.199183,32.7750955 146.218391,32.7750955 C144.648796,32.7750955 143.144226,32.5095541 141.705373,32.0457325 C135.622068,31.4494904 135.359893,36.6832484 142.228341,37.7433121 L148.90033,38.8699363 C157.796316,40.1941401 161.524882,41.9170064 161.524882,47.747707 C161.524882,54.3063694 155.506603,58.3476433 145.891882,58.3476433 C137.453839,58.3476433 132.154986,55.2333121 132.154986,49.9336943 C132.154986,45.2296178 136.145036,42.8446497 139.612119,41.9835669 C129.408022,40.0624204 129.931681,29.5949045 138.892692,30.6542675 C136.275778,28.8655414 134.510416,26.2157325 134.510416,22.903121 C134.510416,17.5369427 137.976115,13.4291083 146.545592,13.4291083 C151.451527,13.4291083 155.245119,15.8147771 156.030262,17.9342038 C156.291746,15.085414 158.058491,13.4291083 161.197681,13.4291083 C162.375051,13.4291083 163.748878,14.4226115 163.748878,16.0130573" id="Fill-10"></path>
                    <path d="M179.70735,15.9464968 C174.670672,15.9464968 171.792966,20.319172 171.792966,26.2815924 L186.902307,26.2815924 C186.968024,20.319172 184.417518,15.9464968 179.70735,15.9464968 M188.734077,28.9979618 L171.792966,28.9979618 C171.792966,36.4842675 176.371701,41.3873248 181.342662,41.3873248 C185.986422,41.3873248 188.34116,38.6043949 189.911447,36.4842675 L191.6775,38.8033758 C190.042189,40.9893631 187.360249,44.4343949 180.296034,44.4343949 C172.250909,44.4343949 166.036171,37.7433121 166.036171,28.5348408 C166.036171,18.7952866 172.185192,13.4291083 179.70735,13.4291083 C186.248597,13.4291083 192.397619,18.1331847 192.397619,25.5529299 C192.397619,28.0710191 191.154533,28.9979618 188.734077,28.9979618" id="Fill-12"></path>
                    <path d="M57.2212487,55.8889682 C54.5393097,56.1538089 53.8856,56.883172 52.7732559,59.4664204 L37.5324817,95.5730446 L36.7473384,95.5730446 C35.766428,95.5730446 35.1120265,95.1092229 34.6547756,93.9832994 L20.5906789,61.1227261 C18.8246251,56.8166115 17.7779978,56.1538089 14.9653168,55.8889682 L14.9653168,54.100242 L28.767238,54.100242 L28.767238,55.8889682 C25.8895319,56.1538089 24.8422129,56.6176306 25.3001556,57.7435541 L37.7282487,87.2256561 L49.8955498,58.4070573 C50.5492595,56.8166115 48.7181806,56.1538089 46.2320086,55.8889682 L46.2320086,54.100242 L57.2212487,54.100242 L57.2212487,55.8889682 Z" id="Fill-14"></path>
                    <path d="M89.804076,54.5205541 L89.804076,6.73781529 C89.804076,4.55182803 88.4309398,3.82316561 85.9447677,4.15386624 L85.9447677,1.5699172 L93.1383412,0.311573248 C95.5581047,-0.0856878981 95.0351369,2.29928025 95.0351369,5.21392994 L95.0351369,38.1410637 L95.0351369,54.3867325" id="Fill-16"></path>
                    <path d="M89.8033842,72.9153567 C87.382929,69.2713439 84.570248,67.6808981 81.1688824,67.6808981 C76.1972301,67.6808981 73.319524,72.9819172 73.319524,80.0044013 C73.319524,86.6954841 77.1788323,92.3930637 82.0190509,92.3930637 C86.5320688,92.3930637 88.6260151,88.882172 89.8033842,85.7019809 L89.8033842,72.9153567 Z M95.0358287,54.1333822 L95.0358287,89.0804522 C95.0358287,91.3995605 96.1481728,91.8633822 98.6986781,91.466121 L98.6986781,93.6521083 L94.577886,95.2418535 C92.6810903,95.7722357 90.3920688,93.916949 89.8033842,89.1470127 C88.7560652,91.0681592 86.4670437,95.7722357 80.6459147,95.7722357 C74.2347176,95.7722357 67.9556459,90.0739554 67.9556459,80.8654841 C67.9556459,72.3849745 72.7301477,65.0310892 79.8607713,65.0310892 C85.4204165,65.0310892 87.6444129,67.5491783 89.8033842,69.5368854 L89.8033842,54.5208344 L95.0358287,54.1333822 Z" id="Fill-18"></path>
                    <path d="M132.81928,67.0187962 L131.904086,67.4160573 C130.726717,67.9464395 129.614373,68.1447197 129.15643,69.2054841 L116.204677,100.807713 C114.046398,106.107331 112.280344,109.485803 107.898068,109.485803 C105.018978,109.485803 102.795674,108.095038 102.402756,105.84249 C102.01053,103.524083 102.860699,102.131917 105.346871,102.131917 C108.813262,102.131917 106.197039,105.90835 109.271204,105.90835 C110.972233,105.90835 111.887427,103.324401 112.67257,101.536376 L115.812452,93.8510892 L104.235219,69.2054841 C103.645842,68.013 103.057849,67.7474586 102.076247,67.4160573 L100.898186,67.0187962 L100.898186,65.3631911 L112.999771,65.3631911 L112.999771,67.0187962 L111.364459,67.3501975 C110.318523,67.5491783 109.401946,68.0788599 109.925606,69.2054841 L118.363649,87.8214076 L125.624323,69.2054841 C126.016548,68.2112803 125.101355,67.5491783 124.119753,67.3501975 L122.287982,67.0187962 L122.287982,65.3631911 L132.81928,65.3631911 L132.81928,67.0187962 Z" id="Fill-20"></path>
                    <path d="M153.803014,86.4306433 L153.803014,78.9436369 C141.439946,80.7330637 139.869659,84.2446561 139.869659,87.6896879 C139.869659,90.736758 141.963606,92.9234459 145.495022,92.9234459 C150.400957,92.9234459 152.429186,88.4183503 153.803014,86.4306433 M162.567566,92.1947834 L162.567566,94.2483503 C160.867229,95.308414 159.166201,95.7722357 157.989523,95.7722357 C156.092728,95.7722357 154.522441,93.4531274 154.064498,89.1470127 C152.559928,92.3272038 149.22428,95.8380955 144.317652,95.9039554 C139.21595,95.9705159 134.310014,93.320707 134.310014,87.8879682 C134.310014,82.7866306 137.71138,79.076758 153.803014,76.8242102 L153.803014,76.0289873 C153.803014,70.2655478 152.232728,67.2177771 147.653993,67.2177771 C143.663943,67.2177771 141.767147,68.2112803 141.767147,72.8487962 C141.767147,74.1078408 139.935376,74.6375223 138.496523,74.6375223 C136.926928,74.6375223 136.010351,73.5774586 135.945326,72.0535732 C135.945326,67.1512166 141.635713,64.7662484 147.915477,64.7662484 C155.176151,64.7662484 158.970434,68.8082229 158.970434,75.5651656 L158.970434,89.8091146 C158.970434,92.1947834 160.082086,92.6586051 162.567566,92.1947834" id="Fill-22"></path>
                    <polyline id="Fill-24" points="55.3826087 67.0851469 57.9338058 61.5760386 60.4843112 67.0851469"></polyline>
                    <path d="M55.3826087,89.6923077 L55.3826087,92.2370211 C55.3826087,93.1947918 56.1490746,93.9710975 57.0953972,93.9710975 L58.9064151,93.9710975 C59.7780281,93.9710975 60.4843112,93.2550465 60.4843112,92.3729446 L60.4843112,89.6923077 L55.3826087,89.6923077 Z" id="Fill-26"></path>
                </g>
            </g>
        </g>
    </g>
</svg>